<?xml version="1.0" encoding="utf-8"?>
<!-- Generator: Adobe Illustrator 22.0.1, SVG Export Plug-In . SVG Version: 6.00 Build 0)  -->
<svg version="1.1" id="Layer_1" xmlns="http://www.w3.org/2000/svg" xmlns:xlink="http://www.w3.org/1999/xlink" x="0px" y="0px"
	 viewBox="0 0 64 64" style="enable-background:new 0 0 64 64;" xml:space="preserve">
<style type="text/css">
	.st0{fill:none;}
	.st1{fill:#F5512A;}
	.st2{fill:#FFFFFF;}
</style>
<rect x="0" y="0" class="st0" width="64" height="64"/>
<g>
	<path class="st1" d="M32.6,60.7c10.9-2.1,22.2-8.2,26.7-18.5c5.8-13.2,1.4-29.5-4.8-42.2L0,0l0,59.4C10.2,62.4,22.3,62.8,32.6,60.7
		z"/>
</g>
<path class="st2" d="M41.7,34.8c-0.2-0.4-0.6-0.6-0.9-0.8c-0.2-0.1-0.5,0.1-0.5,0.3c0,1.3-1,2.7-2.8,2.1c0,0-0.1-0.1-0.2-0.1
	c-1-0.6-1.3-2-1-3.1c0.4-2,1.9-3.4,2.7-5.2c0.7-1.7,1-3.6,0.7-5.4c-0.1-0.4-0.2-0.9-0.3-1.3c-0.4-1.2-0.9-2.3-1.6-3.3
	c-0.6-0.8-1.8-0.3-1.7,0.7c0,0,0,0,0,0c0.2,2.4-1.3,5.7-4.8,4.6c-0.2-0.1-0.4-0.2-0.5-0.4c-2.2-3.9,2.1-5.6,0.9-9.2
	c-0.5-1.6-1.8-2.7-3.3-3.3c-0.7-0.3-1.4,0.4-1.3,1.1c0.2,0.7,0.2,1.5-0.1,2.1c-0.3,0.7-1,1.1-1.6,1.4c-2.4,1-5.5,0.5-6.9,3
	c-0.8,1.3-0.8,2.5-0.5,3.7c0.5,2,1.9,3.9,1.7,6.1c0,0.1,0,0.2-0.1,0.3c-1.2,2.7-3.4,1.8-4.2,0.1c0-0.1-0.1-0.1-0.1-0.2
	c-0.3-0.8-1.4-0.8-1.7,0C13.1,28.8,13,30,13,31c0,2.2,0.4,4.4,1.3,6.5c0.3,0.6,0.6,1.2,0.9,1.7c5.5,10.1,21.4,9.8,26.3-0.9
	C42.1,37,42.1,35.5,41.7,34.8z M30.9,41.2c-2.3,1.9-5.8,0.3-7.5-1.5c-2.6-2.7-2.4-6.2-0.5-9.4c0.9-1.6,2.3-2.7,4.1-1.9
	c1.9,0.9,1.8,2.7,2.8,4.4c0,0,0,0,0,0.1c0.8,1.3,2.5,2.2,2.7,3.8C32.8,38.4,32.3,40.1,30.9,41.2z"/>
<path class="st1" d="M30.9,41.2c-2.3,1.9-5.8,0.3-7.5-1.5c-2.6-2.7-2.4-6.2-0.5-9.4c0.9-1.6,2.3-2.7,4.1-1.9
	c1.9,0.9,1.8,2.7,2.8,4.4c0,0,0,0,0,0.1c0.8,1.3,2.5,2.2,2.7,3.8C32.8,38.4,32.3,40.1,30.9,41.2z"/>
</svg>
